[gd_scene load_steps=3 format=2]

[ext_resource path="res://resources/fonts/pixel_operator_EXTRA.tres" type="DynamicFont" id=1]

[sub_resource type="Animation" id=1]
resource_name = "blinking"
loop = true
tracks/0/type = "value"
tracks/0/path = NodePath(".:visible")
tracks/0/interp = 1
tracks/0/loop_wrap = true
tracks/0/imported = false
tracks/0/enabled = true
tracks/0/keys = {
"times": PoolRealArray( 0, 0.5, 1 ),
"transitions": PoolRealArray( 1, 1, 1 ),
"update": 1,
"values": [ true, false, true ]
}

[node name="menu" type="Control"]
margin_right = 40.0
margin_bottom = 40.0

[node name="AnimationPlayer" type="AnimationPlayer" parent="."]
root_node = NodePath("../CanvasLayer/VBoxContainer2/START")
autoplay = "blinking"
anims/blinking = SubResource( 1 )

[node name="CanvasLayer" type="CanvasLayer" parent="."]

[node name="VBoxContainer2" type="VBoxContainer" parent="CanvasLayer"]
margin_top = 100.0
margin_right = 280.0
margin_bottom = 116.0
alignment = 1

[node name="START" type="Label" parent="CanvasLayer/VBoxContainer2"]
margin_right = 280.0
margin_bottom = 16.0
custom_colors/font_color = Color( 0.72549, 0.352941, 1, 1 )
custom_fonts/font = ExtResource( 1 )
text = "press start"
align = 1
valign = 1

[node name="VBoxContainer" type="VBoxContainer" parent="CanvasLayer"]
margin_top = 50.0
margin_right = 280.0
margin_bottom = 66.0
alignment = 1

[node name="TITLE" type="Label" parent="CanvasLayer/VBoxContainer"]
margin_right = 280.0
margin_bottom = 16.0
custom_colors/font_color = Color( 0.72549, 0.352941, 1, 1 )
custom_fonts/font = ExtResource( 1 )
text = "SEX"
align = 1
valign = 1
autowrap = true
